name,real_name,d,slug,r,image_path,image_extension
Captain America,Steve Rogers,d,captain-america,r,http://i.annihil.us/u/prod/marvel/i/mg/3/50/537ba56d31087,jpg
Wasp,Janet van Dyne,d,wasp,r,http://i.annihil.us/u/prod/marvel/i/mg/9/c0/5390dfd5ef165,jpg
Black Widow,Natasha Romanov,d,black-widow,r,http://i.annihil.us/u/prod/marvel/i/mg/f/30/50fecad1f395b,jpg
Iron Woman,Natasha Stark,d,iron-woman,r,none,none
Storm,Ororo Munroe,d,storm,r,http://i.annihil.us/u/prod/marvel/i/mg/6/40/526963dad214d,jpg
Scarlet Witch,Wanda Maximoff,d,scarlet-witch,r,http://i.annihil.us/u/prod/marvel/i/mg/6/70/5261a7d7c394b,jpg
Mystique,Raven Darkholme,d,mystique,r,http://i.annihil.us/u/prod/marvel/i/mg/5/03/5390dc2225782,jpg
Rogue,Anna Marie,d,rogue,r,http://i.annihil.us/u/prod/marvel/i/mg/3/10/5112d84e2166c,jpg
Phoenix,Jean Gray,d,phoenix,r,none,none
Cyclops,Scott Summers,d,cyclops,r,http://i.annihil.us/u/prod/marvel/i/mg/6/70/526547e2d90ad,jpg
Havok,Alex Summers,d,havok,r,http://i.annihil.us/u/prod/marvel/i/mg/9/e0/5261659ebeaf8,jpg
Wolverine,James "Logan" Howlett,d,wolverine,r,http://i.annihil.us/u/prod/marvel/i/mg/2/60/537bcaef0f6cf,jpg
Gambit,Remy LeBeau,d,gambit,r,http://i.annihil.us/u/prod/marvel/i/mg/a/40/52696aa8aee99,jpg
Nightcrawler,Kurt Wagner,d,nightcrawler,r,http://i.annihil.us/u/prod/marvel/i/mg/1/40/526034979bc98,jpg
Magneto,Erik Lehnsherr,d,magneto,r,http://i.annihil.us/u/prod/marvel/i/mg/3/b0/5261a7e53f827,jpg
Quicksilver,Pietro Maximoff,d,quicksilver,r,http://i.annihil.us/u/prod/marvel/i/mg/6/f0/53176ffc42f58,jpg
Professor X,Charles Xavier,d,professor-x,r,http://i.annihil.us/u/prod/marvel/i/mg/3/e0/528d3378de525,jpg
Black Panther,T'challa,d,black-panther,r,http://i.annihil.us/u/prod/marvel/i/mg/6/60/5261a80a67e7d,jpg
Red Skull,Johann Shmidt,d,red-skull,r,http://i.annihil.us/u/prod/marvel/i/mg/2/03/526036550cd37,jpg
Winter Soldier,James Buchanan Barnes,d,winter-soldier,r,http://i.annihil.us/u/prod/marvel/i/mg/d/03/5265478293c1e,jpg
Iron Man,Tony Stark,d,iron-man,r,http://i.annihil.us/u/prod/marvel/i/mg/9/c0/527bb7b37ff55,jpg
Hawkeye,Clint Barton,d,hawkeye,r,http://i.annihil.us/u/prod/marvel/i/mg/e/90/50fecaf4f101b,jpg