character_1,character_2,type,summary,description
Wasp,Black Widow,Allies,Avengers,everybody gets a long ass description with no commas and no other punctuation because thats just how its gotta be ya feel me
Wasp,Scarlet Witch,Allies,Avengers,everybody gets a long ass description with no commas and no other punctuation because thats just how its gotta be ya feel me
Wasp,Wolverine,Allies,Avengers,everybody gets a long ass description with no commas and no other punctuation because thats just how its gotta be ya feel me
Wasp,Black Panther,Allies,Avengers,everybody gets a long ass description with no commas and no other punctuation because thats just how its gotta be ya feel me
Wasp,Captain America,Allies,Avengers,everybody gets a long ass description with no commas and no other punctuation because thats just how its gotta be ya feel me
Wasp,Iron Man,Allies,Avengers,everybody gets a long ass description with no commas and no other punctuation because thats just how its gotta be ya feel me
Wasp,Hawkeye,Allies,Avengers,everybody gets a long ass description with no commas and no other punctuation because thats just how its gotta be ya feel me
Black Widow,Scarlet Witch,Allies,Avengers,everybody gets a long ass description with no commas and no other punctuation because thats just how its gotta be ya feel me
Black Widow,Wolverine,Allies,Avengers,everybody gets a long ass description with no commas and no other punctuation because thats just how its gotta be ya feel me
Black Widow,Black Panther,Allies,Avengers,everybody gets a long ass description with no commas and no other punctuation because thats just how its gotta be ya feel me
Black Widow,Captain America,Allies,Avengers,everybody gets a long ass description with no commas and no other punctuation because thats just how its gotta be ya feel me
Black Widow,Iron Man,Allies,Avengers,everybody gets a long ass description with no commas and no other punctuation because thats just how its gotta be ya feel me
Black Widow,Hawkeye,Allies,Avengers,everybody gets a long ass description with no commas and no other punctuation because thats just how its gotta be ya feel me
Black Widow,Red Skull,Allies,s,everybody gets a long ass description with no commas and no other punctuation because thats just how its gotta be ya feel me
Black Widow,Scarlet Witch,Enemies,vs Avengers,everybody gets a long ass description with no commas and no other punctuation because thats just how its gotta be ya feel me
Black Widow,Wolverine,Enemies,vs Avengers,everybody gets a long ass description with no commas and no other punctuation because thats just how its gotta be ya feel me
Black Widow,Black Panther,Enemies,vs Avengers,everybody gets a long ass description with no commas and no other punctuation because thats just how its gotta be ya feel me
Black Widow,Captain America,Enemies,vs Avengers,everybody gets a long ass description with no commas and no other punctuation because thats just how its gotta be ya feel me
Black Widow,Iron Man,Enemies,vs Avengers,everybody gets a long ass description with no commas and no other punctuation because thats just how its gotta be ya feel me
Black Widow,Hawkeye,Enemies,vs Avengers,everybody gets a long ass description with no commas and no other punctuation because thats just how its gotta be ya feel me
Scarlet Witch,Wolverine,Allies,Avengers,everybody gets a long ass description with no commas and no other punctuation because thats just how its gotta be ya feel me
Scarlet Witch,Black Panther,Allies,Avengers,everybody gets a long ass description with no commas and no other punctuation because thats just how its gotta be ya feel me
Scarlet Witch,Captain America,Allies,Avengers,everybody gets a long ass description with no commas and no other punctuation because thats just how its gotta be ya feel me
Scarlet Witch,Iron Man,Allies,Avengers,everybody gets a long ass description with no commas and no other punctuation because thats just how its gotta be ya feel me
Scarlet Witch,Hawkeye,Allies,Avengers,everybody gets a long ass description with no commas and no other punctuation because thats just how its gotta be ya feel me
Scarlet Witch,Magneto,Allies,s,everybody gets a long ass description with no commas and no other punctuation because thats just how its gotta be ya feel me
Scarlet Witch,Quicksilver,Allies,s,everybody gets a long ass description with no commas and no other punctuation because thats just how its gotta be ya feel me
Scarlet Witch,Magneto,Family,Father,everybody gets a long ass description with no commas and no other punctuation because thats just how its gotta be ya feel me
Scarlet Witch,Quicksilver,Family,Sister,everybody gets a long ass description with no commas and no other punctuation because thats just how its gotta be ya feel me
Scarlet Witch,Professor X,Enemies,vs X-men,everybody gets a long ass description with no commas and no other punctuation because thats just how its gotta be ya feel me
Iron Woman,Iron Man,Alternate Universe,s,everybody gets a long ass description with no commas and no other punctuation because thats just how its gotta be ya feel me

